<?xml version="1.0" encoding="UTF-8" standalone="no"?>
<svg
   xmlns:dc="http://purl.org/dc/elements/1.1/"
   xmlns:cc="http://creativecommons.org/ns#"
   xmlns:rdf="http://www.w3.org/1999/02/22-rdf-syntax-ns#"
   xmlns:svg="http://www.w3.org/2000/svg"
   xmlns="http://www.w3.org/2000/svg"
   xmlns:sodipodi="http://sodipodi.sourceforge.net/DTD/sodipodi-0.dtd"
   xmlns:inkscape="http://www.inkscape.org/namespaces/inkscape"
   inkscape:version="1.0beta1 (fe3e306, 2019-09-17)"
   sodipodi:docname="oxhead.svg"
   id="svg38"
   version="1.1"
   viewBox="0 0 120 93"
   height="93"
   width="120">
  <metadata
     id="metadata42">
    <rdf:RDF>
      <cc:Work
         rdf:about="">
        <dc:format>image/svg+xml</dc:format>
        <dc:type
           rdf:resource="http://purl.org/dc/dcmitype/StillImage" />
      </cc:Work>
    </rdf:RDF>
  </metadata>
  <sodipodi:namedview
     inkscape:current-layer="svg38"
     inkscape:window-maximized="0"
     inkscape:window-y="0"
     inkscape:window-x="156"
     inkscape:cy="-105.60528"
     inkscape:cx="-75.089494"
     inkscape:zoom="2.8284271"
     showgrid="false"
     id="namedview40"
     inkscape:window-height="1040"
     inkscape:window-width="1561"
     inkscape:pageshadow="2"
     inkscape:pageopacity="0"
     guidetolerance="10"
     gridtolerance="10"
     objecttolerance="10"
     borderopacity="1"
     inkscape:document-rotation="0"
     bordercolor="#666666"
     pagecolor="#ffffff" />
  <defs
     id="defs28">
    <path
       d="M100.848 1.327L119.69 26.1 98.56 48.452l-11.978-3.174-.648 4.693-3.012.474c-.595-3.046-1.891-5.859-3.683-8.295l1.716-1.565a22.562 22.562 0 0 1 3.156 5.656l.526-3.85 13.192 3.504 18.856-19.952-11.155-14.688 5.658 12.168-12.742 12.244-2.302-1 1.807-1.723.381-.36 1.273-1.196v-.015l8.792-8.469-9.508-20.419 1.96-1.158zM63.38 34.561l7.152-6.565 3.134.18-2.287 2.159-2.204 2.015a23.9 23.9 0 0 1 6.855 3.415l-1.716 1.617c-2.097-1.474-4.529-2.572-7.106-3.204l-.961.887a42.313 42.313 0 0 0-2.867-.504zm13.351-6.114l-.122-.09 12.597.722 6.45 2.858-1.791 1.714-5.239-2.301-1.433-.09-6.817 6.73-2.585 2.385a21.558 21.558 0 0 0-1.647-1.572l1.685-1.58c0 .008.023.016.046.016l1.205-1.181.03-.038 4.987-4.94-9.554-.557 2.188-2.076zM61.107 44.481v-7.776c.694.052 1.532.128 2.318.218v2.256h-.015v3.55a15.518 15.518 0 0 1 5.276 2.587l2.692-2.46a19.108 19.108 0 0 0-5.635-3.045v-2.407a21.515 21.515 0 0 1 9.066 5.43l-3.668 3.347v.007l-.709.662a15.492 15.492 0 0 1 2.89 4.13c.084.165.153.338.229.503l-2.128.91a5.152 5.152 0 0 1-.19-.444 13.342 13.342 0 0 0-6.169-6.167 14.116 14.116 0 0 0-3.957-1.3zm13.504 1.632l1.7-1.557c1.975 2.49 3.4 5.415 4.064 8.62l2.844-.43v-.03l2.395-.376-1.754 12.65-5.666 8.213-.556 1.61-2.395-.181.893-2.467 5.505-8.017 1.235-9.032-1.144.172v-.007l-3.294.511-3.69.55c.015.368.023.751.023 1.12 0 1.925-.343 3.775-1.007 5.483l3.287 1.684c.869-2.023 1.357-4.226 1.448-6.535l2.318-.361a20.326 20.326 0 0 1-2.706 10.002l-5.193-2.655-.153-.082c-.45.774-.953 1.511-1.532 2.188a15.506 15.506 0 0 1-7.824 5.01v1.255c-.724.233-1.517.406-2.302.489V46.82c.785.158 1.578.399 2.303.73v22.254a13.275 13.275 0 0 0 6.054-4.07 12.858 12.858 0 0 0 2.989-8.272v-.775l-3.393.52v5.918h-2.318v-7.882L78.08 53.53a18.608 18.608 0 0 0-3.47-7.416zm-.755 23.608c.32-.369.61-.737.907-1.128l2.097 1.083c-.404.526-.8 1.06-1.235 1.541-3.096 3.513-7.366 5.98-12.215 6.867v7.483l8.418-1.346 2.638-7.416 2.379.226-3.294 9.22-12.444 2.008V76.25a14.15 14.15 0 0 0 3.56-.805c3.623-.985 6.802-3 9.189-5.723z"
       id="a" />
  </defs>
  <g
     id="g36"
     transform="matrix(-1.1402689,0,0,-1.0531562,120.12197,93.462251)"
     fill-rule="evenodd"
     fill="#FAFBFC">
    <path
       sodipodi:nodetypes="ccccccccccccccccccccccccccccccccccccccccc"
       inkscape:connector-curvature="0"
       id="path30"
       d="m 18.841,1.327 1.99,1.158 -9.523,20.42 8.807,8.468 -0.015,0.015 1.273,1.195 0.389,0.361 1.807,1.723 -2.31,1 L 8.517,23.423 14.19,11.255 3.02,25.943 21.884,45.895 35.067,42.39 l 0.519,3.851 c 0.789387,-2.02194 1.854103,-3.925236 3.164,-5.656 l 1.7,1.565 c -1.820185,2.460108 -3.072545,5.293029 -3.667,8.295 L 33.763,49.971 33.108,45.278 21.128,48.452 0,26.1 Z M 30.5,29.079 c 6.993963,-1.811142 24.188913,1.282724 5.093,2 l 5.01,4.941 0.015,0.008 c 2.952221,2.283788 3.43212,6.284568 -1.281,1.963 l -6.84,-6.731 -1.433,0.09 -5.215,2.301 -1.807,-1.714 z m 8.822,24.097 c 33.212428,-0.06638 8.224396,3.950913 -1.35,2.105 v 0.007 c 12.333799,34.073928 15.258142,55.06511 -3.873,-2.948 l 2.379,0.376 0.015,0.03 2.83,0.43 z" />
  </g>
  <g
     fill="#FAFBFC"
     fill-rule="evenodd"
     transform="matrix(1.1402689,0,0,-1.0531562,-0.1502737,93.543365)"
     id="g36-1">
    <path
       d="m 18.841,1.327 1.99,1.158 -9.523,20.42 8.807,8.468 -0.015,0.015 1.273,1.195 0.389,0.361 1.807,1.723 -2.31,1 L 8.517,23.423 14.19,11.255 3.02,25.943 21.884,45.895 35.067,42.39 l 0.519,3.851 c 0.789387,-2.02194 1.854103,-3.925236 3.164,-5.656 l 1.7,1.565 c -1.820185,2.460108 -3.072545,5.293029 -3.667,8.295 L 33.763,49.971 33.108,45.278 21.128,48.452 0,26.1 Z M 30.5,29.079 c 6.993963,-1.811142 24.188913,1.282724 5.093,2 l 5.01,4.941 0.015,0.008 c 2.952221,2.283788 3.43212,6.284568 -1.281,1.963 l -6.84,-6.731 -1.433,0.09 -5.215,2.301 -1.807,-1.714 z m 8.822,24.097 c 33.212428,-0.06638 8.224396,3.950913 -1.35,2.105 v 0.007 c 12.333799,34.073928 15.258142,55.06511 -3.873,-2.948 l 2.379,0.376 0.015,0.03 2.83,0.43 z"
       id="path30-8"
       inkscape:connector-curvature="0"
       sodipodi:nodetypes="ccccccccccccccccccccccccccccccccccccccccc" />
  </g>
</svg>
